^C:\USERS\JJ\SKYDRIVE\WORKSPACE\CS236\LAB3\LAB3\DEBUG\DATABASE.OBJ|C:\USERS\JJ\SKYDRIVE\WORKSPACE\CS236\LAB3\LAB3\DEBUG\DATALOGPROGRAM.OBJ|C:\USERS\JJ\SKYDRIVE\WORKSPACE\CS236\LAB3\LAB3\DEBUG\DOMAIN.OBJ|C:\USERS\JJ\SKYDRIVE\WORKSPACE\CS236\LAB3\LAB3\DEBUG\FACT.OBJ|C:\USERS\JJ\SKYDRIVE\WORKSPACE\CS236\LAB3\LAB3\DEBUG\FACTLIST.OBJ|C:\USERS\JJ\SKYDRIVE\WORKSPACE\CS236\LAB3\LAB3\DEBUG\MAIN.OBJ|C:\USERS\JJ\SKYDRIVE\WORKSPACE\CS236\LAB3\LAB3\DEBUG\PARAMETER.OBJ|C:\USERS\JJ\SKYDRIVE\WORKSPACE\CS236\LAB3\LAB3\DEBUG\PARSER.OBJ|C:\USERS\JJ\SKYDRIVE\WORKSPACE\CS236\LAB3\LAB3\DEBUG\PREDICATE.OBJ|C:\USERS\JJ\SKYDRIVE\WORKSPACE\CS236\LAB3\LAB3\DEBUG\QUERY.OBJ|C:\USERS\JJ\SKYDRIVE\WORKSPACE\CS236\LAB3\LAB3\DEBUG\QUERYLIST.OBJ|C:\USERS\JJ\SKYDRIVE\WORKSPACE\CS236\LAB3\LAB3\DEBUG\RELATION.OBJ|C:\USERS\JJ\SKYDRIVE\WORKSPACE\CS236\LAB3\LAB3\DEBUG\RULE.OBJ|C:\USERS\JJ\SKYDRIVE\WORKSPACE\CS236\LAB3\LAB3\DEBUG\RULELIST.OBJ|C:\USERS\JJ\SKYDRIVE\WORKSPACE\CS236\LAB3\LAB3\DEBUG\SCANNER.OBJ|C:\USERS\JJ\SKYDRIVE\WORKSPACE\CS236\LAB3\LAB3\DEBUG\SCHEMA.OBJ|C:\USERS\JJ\SKYDRIVE\WORKSPACE\CS236\LAB3\LAB3\DEBUG\SCHEME.OBJ|C:\USERS\JJ\SKYDRIVE\WORKSPACE\CS236\LAB3\LAB3\DEBUG\SCHEMELIST.OBJ|C:\USERS\JJ\SKYDRIVE\WORKSPACE\CS236\LAB3\LAB3\DEBUG\TOKEN.OBJ|C:\USERS\JJ\SKYDRIVE\WORKSPACE\CS236\LAB3\LAB3\DEBUG\TUPLE.OBJ
C:\PROGRAM FILES (X86)\WINDOWS KITS\8.0\LIB\WIN8\UM\X86\KERNEL32.LIB
C:\PROGRAM FILES (X86)\WINDOWS KITS\8.0\LIB\WIN8\UM\X86\USER32.LIB
C:\PROGRAM FILES (X86)\WINDOWS KITS\8.0\LIB\WIN8\UM\X86\GDI32.LIB
C:\PROGRAM FILES (X86)\WINDOWS KITS\8.0\LIB\WIN8\UM\X86\WINSPOOL.LIB
C:\PROGRAM FILES (X86)\WINDOWS KITS\8.0\LIB\WIN8\UM\X86\COMDLG32.LIB
C:\PROGRAM FILES (X86)\WINDOWS KITS\8.0\LIB\WIN8\UM\X86\ADVAPI32.LIB
C:\PROGRAM FILES (X86)\WINDOWS KITS\8.0\LIB\WIN8\UM\X86\SHELL32.LIB
C:\PROGRAM FILES (X86)\WINDOWS KITS\8.0\LIB\WIN8\UM\X86\OLE32.LIB
C:\PROGRAM FILES (X86)\WINDOWS KITS\8.0\LIB\WIN8\UM\X86\OLEAUT32.LIB
C:\PROGRAM FILES (X86)\WINDOWS KITS\8.0\LIB\WIN8\UM\X86\UUID.LIB
C:\PROGRAM FILES (X86)\WINDOWS KITS\8.0\LIB\WIN8\UM\X86\ODBC32.LIB
C:\PROGRAM FILES (X86)\WINDOWS KITS\8.0\LIB\WIN8\UM\X86\ODBCCP32.LIB
C:\USERS\JJ\SKYDRIVE\WORKSPACE\CS236\LAB3\LAB3\DEBUG\DATABASE.OBJ
C:\USERS\JJ\SKYDRIVE\WORKSPACE\CS236\LAB3\LAB3\DEBUG\DATALOGPROGRAM.OBJ
C:\USERS\JJ\SKYDRIVE\WORKSPACE\CS236\LAB3\LAB3\DEBUG\DOMAIN.OBJ
C:\USERS\JJ\SKYDRIVE\WORKSPACE\CS236\LAB3\LAB3\DEBUG\FACT.OBJ
C:\USERS\JJ\SKYDRIVE\WORKSPACE\CS236\LAB3\LAB3\DEBUG\FACTLIST.OBJ
C:\USERS\JJ\SKYDRIVE\WORKSPACE\CS236\LAB3\LAB3\DEBUG\MAIN.OBJ
C:\USERS\JJ\SKYDRIVE\WORKSPACE\CS236\LAB3\LAB3\DEBUG\PARAMETER.OBJ
C:\USERS\JJ\SKYDRIVE\WORKSPACE\CS236\LAB3\LAB3\DEBUG\PARSER.OBJ
C:\USERS\JJ\SKYDRIVE\WORKSPACE\CS236\LAB3\LAB3\DEBUG\PREDICATE.OBJ
C:\USERS\JJ\SKYDRIVE\WORKSPACE\CS236\LAB3\LAB3\DEBUG\QUERY.OBJ
C:\USERS\JJ\SKYDRIVE\WORKSPACE\CS236\LAB3\LAB3\DEBUG\QUERYLIST.OBJ
C:\USERS\JJ\SKYDRIVE\WORKSPACE\CS236\LAB3\LAB3\DEBUG\RELATION.OBJ
C:\USERS\JJ\SKYDRIVE\WORKSPACE\CS236\LAB3\LAB3\DEBUG\RULE.OBJ
C:\USERS\JJ\SKYDRIVE\WORKSPACE\CS236\LAB3\LAB3\DEBUG\RULELIST.OBJ
C:\USERS\JJ\SKYDRIVE\WORKSPACE\CS236\LAB3\LAB3\DEBUG\SCANNER.OBJ
C:\USERS\JJ\SKYDRIVE\WORKSPACE\CS236\LAB3\LAB3\DEBUG\SCHEMA.OBJ
C:\USERS\JJ\SKYDRIVE\WORKSPACE\CS236\LAB3\LAB3\DEBUG\SCHEME.OBJ
C:\USERS\JJ\SKYDRIVE\WORKSPACE\CS236\LAB3\LAB3\DEBUG\SCHEMELIST.OBJ
C:\USERS\JJ\SKYDRIVE\WORKSPACE\CS236\LAB3\LAB3\DEBUG\TOKEN.OBJ
C:\USERS\JJ\SKYDRIVE\WORKSPACE\CS236\LAB3\LAB3\DEBUG\TUPLE.OBJ
C:\WINDOWS\SYSTEM32\TZRES.DLL
C:\WINDOWS\GLOBALIZATION\SORTING\SORTDEFAULT.NLS
C:\PROGRAM FILES (X86)\MICROSOFT VISUAL STUDIO 11.0\VC\LIB\MSVCPRTD.LIB
C:\PROGRAM FILES (X86)\MICROSOFT VISUAL STUDIO 11.0\VC\LIB\MSVCRTD.LIB
C:\PROGRAM FILES (X86)\MICROSOFT VISUAL STUDIO 11.0\VC\LIB\OLDNAMES.LIB
C:\PROGRAM FILES (X86)\MICROSOFT VISUAL STUDIO 11.0\VC\BIN\LINK.EXE
C:\PROGRAM FILES (X86)\WINDOWS KITS\8.0\BIN\X86\RC.EXE
C:\PROGRAM FILES (X86)\MICROSOFT VISUAL STUDIO 11.0\VC\BIN\CVTRES.EXE
