Schemes:
   ancestorOf(X,Y) 
   childOf(X,Y) 
   relativeOf(X,Y)
   descendantOf(X,Y)
   SK(A,B) 
   RAWR(A,B,C,D) 
   TEST(X) 
Facts:
  ancestorOf('trex','raptor').
  childOf('cat','dog').
  relativeOf('sasquatch','trapperben').
  relativeOf('meow','trapperben').
  SK('a','c').
  SK('b','c').
  SK('b','b').
  SK('b','c').
  RAWR('m','a','t','t').
  RAWR('t','t','a','m').
  TEST('a').
  TEST('b').
  TEST('d').
Rules:
  DoNothing(Z) :- Stuff(Z).
Queries:
  SK(A,'c')?
  SK('c','c')?
  SK('b','c')?
  RAWR('m','a','t','t')?
  TEST('c')?
  RAWR('m','a','t',x)?
  RAWR('m','a',x,x)?
  RAWR('m','a',y,x)?
  RAWR('m',x,y,x)?
  TEST('b')?
  RAWR('m',y,y,x)?
  RAWR('m',z,y,x)?
  RAWR(x,z,y,x)?
  RAWR(y,z,y,x)?
  TEST(X)?
  RAWR(z,z,y,x)?
  RAWR(a,z,y,x)?
  RAWR('m','e','t','t')?
  SK(X,X)?
  SK(A,B)?
  TEST('a')?
  SK('b',X)?
  relativeOf(X,'trapperben')?
  ancestorOf('trex',Y)?
  ancestorOf('trex','trex')?
  childOf('cat','cat')?
  childOf(X,'dog')?
